<svg xmlns="http://www.w3.org/2000/svg" width="20.002" height="20" viewBox="0 0 20.002 20">
    <defs>
        <style>
            .cls-1{fill:#9ea0a5}
        </style>
    </defs>
    <g id="Menu_Item" data-name="Menu Item" transform="translate(-30 -143)">
        <path id="Icon" d="M41 163v-4h-2v4h-7v-9.187l-.59.593-1.41-1.414L40 143l8 8 2 2-1.415 1.413-.585-.581V163zm5-2v-9.168l-6.009-6.008L34 151.813V161h3v-4h6v4z" class="cls-1"/>
    </g>
</svg>
